Benchmarking
…
## Compare by parameter
comparison_by_param <- results_df %>%
  select(expression, nInd, nChr, segSites, time_sec, mem_alloc_mb) %>%
  tidyr::pivot_wider(
    names_from = expression,
    values_from = c(time_sec, mem_alloc_mb)
  ) %>%
  mutate(
    speedup_Macs2 = time_sec_runMacs2 / time_sec_quickHaplo,
    mem_ratio_Macs2 = mem_alloc_mb_runMacs2 / mem_alloc_mb_quickHaplo
  )

comparison_by_param

## # A tibble: 27 × 9
##     nInd  nChr segSites time_sec_quickHaplo time_sec_runMacs2
##    <dbl> <dbl>    <dbl>               <dbl>             <dbl>
##  1     1     1      100            0.000915            0.0413
##  2     2     1      100            0.000961            0.0801
##  3     3     1      100            0.00124             0.105 
##  4     1     5      100            0.00133             0.0592
##  5     2     5      100            0.00136             0.113 
##  6     3     5      100            0.00159             0.147 
##  7     1    10      100            0.00189             0.118 
##  8     2    10      100            0.00218             0.231 
##  9     3    10      100            0.00203             0.305 
## 10     1     1      500            0.00100             0.0444
## # ℹ 17 more rows
## # ℹ 4 more variables: mem_alloc_mb_quickHaplo <dbl>,
## #   mem_alloc_mb_runMacs2 <dbl>, speedup_Macs2 <dbl>, mem_ratio_Macs2 <dbl>
…
