Benchmarking
…
## Compare by parameter
comparison_by_param <- results_df %>%
  select(expression, nInd, nChr, segSites, time_sec, mem_alloc_mb) %>%
  tidyr::pivot_wider(
    names_from = expression,
    values_from = c(time_sec, mem_alloc_mb)
  ) %>%
  mutate(
    speedup_Macs2 = time_sec_runMacs2 / time_sec_quickHaplo,
    mem_ratio_Macs2 = mem_alloc_mb_runMacs2 / mem_alloc_mb_quickHaplo
  )

comparison_by_param

## # A tibble: 27 × 9
##     nInd  nChr segSites time_sec_quickHaplo time_sec_runMacs2
##    <dbl> <dbl>    <dbl>               <dbl>             <dbl>
##  1     1     1      100            0.000997            0.0249
##  2     2     1      100            0.00118             0.0531
##  3     3     1      100            0.00128             0.0758
##  4     1     5      100            0.00177             0.0408
##  5     2     5      100            0.00164             0.0807
##  6     3     5      100            0.00158             0.101 
##  7     1    10      100            0.00263             0.0760
##  8     2    10      100            0.00200             0.177 
##  9     3    10      100            0.00214             0.228 
## 10     1     1      500            0.000833            0.0209
## # ℹ 17 more rows
## # ℹ 4 more variables: mem_alloc_mb_quickHaplo <dbl>,
## #   mem_alloc_mb_runMacs2 <dbl>, speedup_Macs2 <dbl>, mem_ratio_Macs2 <dbl>
…
